# Blender v2.79 (sub 0) OBJ File: ''
# www.blender.org
mtllib DollarSign.mtl
o Bank_Text
v 0.392451 0.876150 0.017443
v 0.382164 0.876150 0.008950
v 0.371008 0.876150 0.000699
v 0.359113 0.876150 -0.007250
v 0.346606 0.876150 -0.014837
v 0.333617 0.876150 -0.022004
v 0.320274 0.876150 -0.028692
v 0.306705 0.876150 -0.034842
v 0.293039 0.876150 -0.040395
v 0.279404 0.876150 -0.045291
v 0.265929 0.876150 -0.049472
v 0.252742 0.876150 -0.052879
v 0.252742 0.876150 0.145121
v 0.280251 0.876150 0.153712
v 0.305733 0.876150 0.163931
v 0.329117 0.876150 0.175699
v 0.350335 0.876150 0.188936
v 0.369316 0.876150 0.203561
v 0.385992 0.876150 0.219496
v 0.400293 0.876150 0.236660
v 0.412150 0.876150 0.254973
v 0.421492 0.876150 0.274355
v 0.428251 0.876150 0.294727
v 0.432358 0.876150 0.316009
v 0.433742 0.876150 0.338121
v 0.432530 0.876150 0.357898
v 0.428877 0.876150 0.378005
v 0.422758 0.876150 0.398105
v 0.414150 0.876150 0.417862
v 0.403028 0.876150 0.436937
v 0.389367 0.876150 0.454996
v 0.373144 0.876150 0.471700
v 0.354335 0.876150 0.486714
v 0.332914 0.876150 0.499699
v 0.308858 0.876150 0.510320
v 0.282142 0.876150 0.518240
v 0.252742 0.876150 0.523121
v 0.252742 0.876150 0.632121
v 0.170742 0.876150 0.632121
v 0.170742 0.876150 0.523121
v 0.154152 0.876150 0.521591
v 0.137858 0.876150 0.519047
v 0.121820 0.876150 0.515558
v 0.106001 0.876150 0.511195
v 0.090363 0.876150 0.506026
v 0.074867 0.876150 0.500121
v 0.059475 0.876150 0.493549
v 0.044150 0.876150 0.486380
v 0.028852 0.876150 0.478683
v 0.013543 0.876150 0.470528
v -0.001814 0.876150 0.461984
v -0.017258 0.876150 0.453121
v -0.017258 0.876150 0.332121
v -0.001757 0.876150 0.345700
v 0.012918 0.876150 0.358005
v 0.027023 0.876150 0.369137
v 0.040816 0.876150 0.379195
v 0.054554 0.876150 0.388281
v 0.068492 0.876150 0.396496
v 0.082889 0.876150 0.403940
v 0.098001 0.876150 0.410714
v 0.114086 0.876150 0.416918
v 0.131400 0.876150 0.422653
v 0.150199 0.876150 0.428021
v 0.170742 0.876150 0.433121
v 0.170742 0.876150 0.217121
v 0.140174 0.876150 0.207815
v 0.112446 0.876150 0.197005
v 0.087523 0.876150 0.184855
v 0.065372 0.876150 0.171528
v 0.045956 0.876150 0.157187
v 0.029242 0.876150 0.141996
v 0.015195 0.876150 0.126117
v 0.003779 0.876150 0.109713
v -0.005039 0.876150 0.092949
v -0.011295 0.876150 0.075987
v -0.015023 0.876150 0.058990
v -0.016258 0.876150 0.042121
v -0.014794 0.876150 0.018468
v -0.010462 0.876150 -0.003935
v -0.003352 0.876150 -0.025004
v 0.006446 0.876150 -0.044657
v 0.018841 0.876150 -0.062810
v 0.033742 0.876150 -0.079379
v 0.051060 0.876150 -0.094282
v 0.070705 0.876150 -0.107435
v 0.092586 0.876150 -0.118754
v 0.116613 0.876150 -0.128157
v 0.142695 0.876150 -0.135560
v 0.170742 0.876150 -0.140879
v 0.170742 0.876150 -0.176879
v 0.252742 0.876150 -0.176879
v 0.252742 0.876150 -0.140879
v 0.264420 0.876150 -0.139470
v 0.276835 0.876150 -0.137273
v 0.289805 0.876150 -0.134332
v 0.303150 0.876150 -0.130694
v 0.316689 0.876150 -0.126403
v 0.330242 0.876150 -0.121504
v 0.343629 0.876150 -0.116043
v 0.356668 0.876150 -0.110064
v 0.369180 0.876150 -0.103613
v 0.380983 0.876150 -0.096736
v 0.391897 0.876150 -0.089476
v 0.401742 0.876150 -0.081879
v 0.401742 0.876150 0.026121
v 0.170742 0.876150 -0.052879
v 0.170742 0.876150 0.118121
v 0.155967 0.876150 0.112703
v 0.142622 0.876150 0.106945
v 0.130680 0.876150 0.100840
v 0.120113 0.876150 0.094380
v 0.110893 0.876150 0.087560
v 0.102992 0.876150 0.080371
v 0.096383 0.876150 0.072807
v 0.091038 0.876150 0.064862
v 0.086930 0.876150 0.056527
v 0.084029 0.876150 0.047797
v 0.082309 0.876150 0.038664
v 0.081742 0.876150 0.029121
v 0.082500 0.876150 0.019028
v 0.084724 0.876150 0.009297
v 0.088336 0.876150 -0.000004
v 0.093261 0.876150 -0.008805
v 0.099422 0.876150 -0.017036
v 0.106742 0.876150 -0.024629
v 0.115146 0.876150 -0.031513
v 0.124557 0.876150 -0.037620
v 0.134898 0.876150 -0.042879
v 0.146094 0.876150 -0.047222
v 0.158067 0.876150 -0.050578
v 0.266179 0.876150 0.428557
v 0.278483 0.876150 0.424362
v 0.289648 0.876150 0.419527
v 0.299668 0.876150 0.414047
v 0.308535 0.876150 0.407914
v 0.316242 0.876150 0.401121
v 0.322783 0.876150 0.393661
v 0.328150 0.876150 0.385528
v 0.332336 0.876150 0.376715
v 0.335335 0.876150 0.367214
v 0.337139 0.876150 0.357018
v 0.337742 0.876150 0.346121
v 0.337254 0.876150 0.336136
v 0.335752 0.876150 0.326658
v 0.333180 0.876150 0.317652
v 0.329483 0.876150 0.309084
v 0.324606 0.876150 0.300918
v 0.318492 0.876150 0.293121
v 0.311087 0.876150 0.285657
v 0.302335 0.876150 0.278491
v 0.292180 0.876150 0.271590
v 0.280566 0.876150 0.264917
v 0.267439 0.876150 0.258439
v 0.252742 0.876150 0.252121
v 0.252742 0.876150 0.432121
v 0.392451 0.692150 0.017443
v 0.382164 0.692150 0.008950
v 0.371008 0.692150 0.000699
v 0.359113 0.692150 -0.007250
v 0.346606 0.692150 -0.014837
v 0.333617 0.692150 -0.022004
v 0.320274 0.692150 -0.028692
v 0.306705 0.692150 -0.034842
v 0.293039 0.692150 -0.040395
v 0.279404 0.692150 -0.045291
v 0.265929 0.692150 -0.049472
v 0.252742 0.692150 -0.052879
v 0.252742 0.692150 0.145121
v 0.280251 0.692150 0.153712
v 0.305733 0.692150 0.163931
v 0.329117 0.692150 0.175699
v 0.350335 0.692150 0.188936
v 0.369316 0.692150 0.203561
v 0.385992 0.692150 0.219496
v 0.400293 0.692150 0.236660
v 0.412150 0.692150 0.254973
v 0.421492 0.692150 0.274355
v 0.428251 0.692150 0.294727
v 0.432358 0.692150 0.316009
v 0.433742 0.692150 0.338121
v 0.432530 0.692150 0.357898
v 0.428877 0.692150 0.378005
v 0.422758 0.692150 0.398105
v 0.414150 0.692150 0.417862
v 0.403028 0.692150 0.436937
v 0.389367 0.692150 0.454996
v 0.373144 0.692150 0.471700
v 0.354335 0.692150 0.486714
v 0.332914 0.692150 0.499699
v 0.308858 0.692150 0.510320
v 0.282142 0.692150 0.518240
v 0.252742 0.692150 0.523121
v 0.252742 0.692150 0.632121
v 0.170742 0.692150 0.632121
v 0.170742 0.692150 0.523121
v 0.154152 0.692150 0.521591
v 0.137858 0.692150 0.519047
v 0.121820 0.692150 0.515558
v 0.106001 0.692150 0.511195
v 0.090363 0.692150 0.506026
v 0.074867 0.692150 0.500121
v 0.059475 0.692150 0.493549
v 0.044150 0.692150 0.486380
v 0.028852 0.692150 0.478683
v 0.013543 0.692150 0.470528
v -0.001814 0.692150 0.461984
v -0.017258 0.692150 0.453121
v -0.017258 0.692150 0.332121
v -0.001757 0.692150 0.345700
v 0.012918 0.692150 0.358005
v 0.027023 0.692150 0.369137
v 0.040816 0.692150 0.379195
v 0.054554 0.692150 0.388281
v 0.068492 0.692150 0.396496
v 0.082889 0.692150 0.403940
v 0.098001 0.692150 0.410714
v 0.114086 0.692150 0.416918
v 0.131400 0.692150 0.422653
v 0.150199 0.692150 0.428021
v 0.170742 0.692150 0.433121
v 0.170742 0.692150 0.217121
v 0.140174 0.692150 0.207815
v 0.112446 0.692150 0.197005
v 0.087523 0.692150 0.184855
v 0.065372 0.692150 0.171528
v 0.045956 0.692150 0.157187
v 0.029242 0.692150 0.141996
v 0.015195 0.692150 0.126117
v 0.003779 0.692150 0.109713
v -0.005039 0.692150 0.092949
v -0.011295 0.692150 0.075987
v -0.015023 0.692150 0.058990
v -0.016258 0.692150 0.042121
v -0.014794 0.692150 0.018468
v -0.010462 0.692150 -0.003935
v -0.003352 0.692150 -0.025004
v 0.006446 0.692150 -0.044657
v 0.018841 0.692150 -0.062810
v 0.033742 0.692150 -0.079379
v 0.051060 0.692150 -0.094282
v 0.070705 0.692150 -0.107435
v 0.092586 0.692150 -0.118754
v 0.116613 0.692150 -0.128157
v 0.142695 0.692150 -0.135560
v 0.170742 0.692150 -0.140879
v 0.170742 0.692150 -0.176879
v 0.252742 0.692150 -0.176879
v 0.252742 0.692150 -0.140879
v 0.264420 0.692150 -0.139470
v 0.276835 0.692150 -0.137273
v 0.289805 0.692150 -0.134332
v 0.303150 0.692150 -0.130694
v 0.316689 0.692150 -0.126403
v 0.330242 0.692150 -0.121504
v 0.343629 0.692150 -0.116043
v 0.356668 0.692150 -0.110064
v 0.369180 0.692150 -0.103613
v 0.380983 0.692150 -0.096736
v 0.391897 0.692150 -0.089476
v 0.401742 0.692150 -0.081879
v 0.401742 0.692150 0.026121
v 0.170742 0.692150 -0.052879
v 0.170742 0.692150 0.118121
v 0.155967 0.692150 0.112703
v 0.142622 0.692150 0.106945
v 0.130680 0.692150 0.100840
v 0.120113 0.692150 0.094380
v 0.110893 0.692150 0.087560
v 0.102992 0.692150 0.080371
v 0.096383 0.692150 0.072807
v 0.091038 0.692150 0.064862
v 0.086930 0.692150 0.056527
v 0.084029 0.692150 0.047797
v 0.082309 0.692150 0.038664
v 0.081742 0.692150 0.029121
v 0.082500 0.692150 0.019028
v 0.084724 0.692150 0.009297
v 0.088336 0.692150 -0.000004
v 0.093261 0.692150 -0.008805
v 0.099422 0.692150 -0.017036
v 0.106742 0.692150 -0.024629
v 0.115146 0.692150 -0.031513
v 0.124557 0.692150 -0.037620
v 0.134898 0.692150 -0.042879
v 0.146094 0.692150 -0.047222
v 0.158067 0.692150 -0.050578
v 0.266179 0.692150 0.428557
v 0.278483 0.692150 0.424362
v 0.289648 0.692150 0.419527
v 0.299668 0.692150 0.414047
v 0.308535 0.692150 0.407914
v 0.316242 0.692150 0.401121
v 0.322783 0.692150 0.393661
v 0.328150 0.692150 0.385528
v 0.332336 0.692150 0.376715
v 0.335335 0.692150 0.367214
v 0.337139 0.692150 0.357018
v 0.337742 0.692150 0.346121
v 0.337254 0.692150 0.336136
v 0.335752 0.692150 0.326658
v 0.333180 0.692150 0.317652
v 0.329483 0.692150 0.309084
v 0.324606 0.692150 0.300918
v 0.318492 0.692150 0.293121
v 0.311087 0.692150 0.285657
v 0.302335 0.692150 0.278491
v 0.292180 0.692150 0.271590
v 0.280566 0.692150 0.264917
v 0.267439 0.692150 0.258439
v 0.252742 0.692150 0.252121
v 0.252742 0.692150 0.432121
v 0.392451 0.692150 0.017443
v 0.392451 0.876150 0.017443
v 0.382164 0.692150 0.008950
v 0.382164 0.876150 0.008950
v 0.371008 0.692150 0.000699
v 0.371008 0.876150 0.000699
v 0.359113 0.692150 -0.007250
v 0.359113 0.876150 -0.007250
v 0.346606 0.692150 -0.014837
v 0.346606 0.876150 -0.014837
v 0.333617 0.692150 -0.022004
v 0.333617 0.876150 -0.022004
v 0.320274 0.692150 -0.028692
v 0.320274 0.876150 -0.028692
v 0.306705 0.692150 -0.034842
v 0.306705 0.876150 -0.034842
v 0.293039 0.692150 -0.040395
v 0.293039 0.876150 -0.040395
v 0.279404 0.692150 -0.045291
v 0.279404 0.876150 -0.045291
v 0.265929 0.692150 -0.049472
v 0.265929 0.876150 -0.049472
v 0.252742 0.692150 -0.052879
v 0.252742 0.876150 -0.052879
v 0.252742 0.692150 0.145121
v 0.252742 0.876150 0.145121
v 0.280251 0.692150 0.153712
v 0.280251 0.876150 0.153712
v 0.305733 0.692150 0.163931
v 0.305733 0.876150 0.163931
v 0.329117 0.692150 0.175699
v 0.329117 0.876150 0.175699
v 0.350335 0.692150 0.188936
v 0.350335 0.876150 0.188936
v 0.369316 0.692150 0.203561
v 0.369316 0.876150 0.203561
v 0.385992 0.692150 0.219496
v 0.385992 0.876150 0.219496
v 0.400293 0.692150 0.236660
v 0.400293 0.876150 0.236660
v 0.412150 0.692150 0.254973
v 0.412150 0.876150 0.254973
v 0.421492 0.692150 0.274355
v 0.421492 0.876150 0.274355
v 0.428251 0.692150 0.294727
v 0.428251 0.876150 0.294727
v 0.432358 0.692150 0.316009
v 0.432358 0.876150 0.316009
v 0.433742 0.692150 0.338121
v 0.433742 0.876150 0.338121
v 0.432530 0.692150 0.357898
v 0.432530 0.876150 0.357898
v 0.428877 0.692150 0.378005
v 0.428877 0.876150 0.378005
v 0.422758 0.692150 0.398105
v 0.422758 0.876150 0.398105
v 0.414150 0.692150 0.417862
v 0.414150 0.876150 0.417862
v 0.403028 0.692150 0.436937
v 0.403028 0.876150 0.436937
v 0.389367 0.692150 0.454996
v 0.389367 0.876150 0.454996
v 0.373144 0.692150 0.471700
v 0.373144 0.876150 0.471700
v 0.354335 0.692150 0.486714
v 0.354335 0.876150 0.486714
v 0.332914 0.692150 0.499699
v 0.332914 0.876150 0.499699
v 0.308858 0.692150 0.510320
v 0.308858 0.876150 0.510320
v 0.282142 0.692150 0.518240
v 0.282142 0.876150 0.518240
v 0.252742 0.692150 0.523121
v 0.252742 0.876150 0.523121
v 0.252742 0.692150 0.632121
v 0.252742 0.876150 0.632121
v 0.170742 0.692150 0.632121
v 0.170742 0.876150 0.632121
v 0.170742 0.692150 0.523121
v 0.170742 0.876150 0.523121
v 0.154152 0.692150 0.521591
v 0.154152 0.876150 0.521591
v 0.137858 0.692150 0.519047
v 0.137858 0.876150 0.519047
v 0.121820 0.692150 0.515558
v 0.121820 0.876150 0.515558
v 0.106001 0.692150 0.511195
v 0.106001 0.876150 0.511195
v 0.090363 0.692150 0.506026
v 0.090363 0.876150 0.506026
v 0.074867 0.692150 0.500121
v 0.074867 0.876150 0.500121
v 0.059475 0.692150 0.493549
v 0.059475 0.876150 0.493549
v 0.044150 0.692150 0.486380
v 0.044150 0.876150 0.486380
v 0.028852 0.692150 0.478683
v 0.028852 0.876150 0.478683
v 0.013543 0.692150 0.470528
v 0.013543 0.876150 0.470528
v -0.001814 0.692150 0.461984
v -0.001814 0.876150 0.461984
v -0.017258 0.692150 0.453121
v -0.017258 0.876150 0.453121
v -0.017258 0.692150 0.332121
v -0.017258 0.876150 0.332121
v -0.001757 0.692150 0.345700
v -0.001757 0.876150 0.345700
v 0.012918 0.692150 0.358005
v 0.012918 0.876150 0.358005
v 0.027023 0.692150 0.369137
v 0.027023 0.876150 0.369137
v 0.040816 0.692150 0.379195
v 0.040816 0.876150 0.379195
v 0.054554 0.692150 0.388281
v 0.054554 0.876150 0.388281
v 0.068492 0.692150 0.396496
v 0.068492 0.876150 0.396496
v 0.082889 0.692150 0.403940
v 0.082889 0.876150 0.403940
v 0.098001 0.692150 0.410714
v 0.098001 0.876150 0.410714
v 0.114086 0.692150 0.416918
v 0.114086 0.876150 0.416918
v 0.131400 0.692150 0.422653
v 0.131400 0.876150 0.422653
v 0.150199 0.692150 0.428021
v 0.150199 0.876150 0.428021
v 0.170742 0.692150 0.433121
v 0.170742 0.876150 0.433121
v 0.170742 0.692150 0.217121
v 0.170742 0.876150 0.217121
v 0.140174 0.692150 0.207815
v 0.140174 0.876150 0.207815
v 0.112446 0.692150 0.197005
v 0.112446 0.876150 0.197005
v 0.087523 0.692150 0.184855
v 0.087523 0.876150 0.184855
v 0.065372 0.692150 0.171528
v 0.065372 0.876150 0.171528
v 0.045956 0.692150 0.157187
v 0.045956 0.876150 0.157187
v 0.029242 0.692150 0.141996
v 0.029242 0.876150 0.141996
v 0.015195 0.692150 0.126117
v 0.015195 0.876150 0.126117
v 0.003779 0.692150 0.109713
v 0.003779 0.876150 0.109713
v -0.005039 0.692150 0.092949
v -0.005039 0.876150 0.092949
v -0.011295 0.692150 0.075987
v -0.011295 0.876150 0.075987
v -0.015023 0.692150 0.058990
v -0.015023 0.876150 0.058990
v -0.016258 0.692150 0.042121
v -0.016258 0.876150 0.042121
v -0.014794 0.692150 0.018468
v -0.014794 0.876150 0.018468
v -0.010462 0.692150 -0.003935
v -0.010462 0.876150 -0.003935
v -0.003352 0.692150 -0.025004
v -0.003352 0.876150 -0.025004
v 0.006446 0.692150 -0.044657
v 0.006446 0.876150 -0.044657
v 0.018841 0.692150 -0.062810
v 0.018841 0.876150 -0.062810
v 0.033742 0.692150 -0.079379
v 0.033742 0.876150 -0.079379
v 0.051060 0.692150 -0.094282
v 0.051060 0.876150 -0.094282
v 0.070705 0.692150 -0.107435
v 0.070705 0.876150 -0.107435
v 0.092586 0.692150 -0.118754
v 0.092586 0.876150 -0.118754
v 0.116613 0.692150 -0.128157
v 0.116613 0.876150 -0.128157
v 0.142695 0.692150 -0.135560
v 0.142695 0.876150 -0.135560
v 0.170742 0.692150 -0.140879
v 0.170742 0.876150 -0.140879
v 0.170742 0.692150 -0.176879
v 0.170742 0.876150 -0.176879
v 0.252742 0.692150 -0.176879
v 0.252742 0.876150 -0.176879
v 0.252742 0.692150 -0.140879
v 0.252742 0.876150 -0.140879
v 0.264420 0.692150 -0.139470
v 0.264420 0.876150 -0.139470
v 0.276835 0.692150 -0.137273
v 0.276835 0.876150 -0.137273
v 0.289805 0.692150 -0.134332
v 0.289805 0.876150 -0.134332
v 0.303150 0.692150 -0.130694
v 0.303150 0.876150 -0.130694
v 0.316689 0.692150 -0.126403
v 0.316689 0.876150 -0.126403
v 0.330242 0.692150 -0.121504
v 0.330242 0.876150 -0.121504
v 0.343629 0.692150 -0.116043
v 0.343629 0.876150 -0.116043
v 0.356668 0.692150 -0.110064
v 0.356668 0.876150 -0.110064
v 0.369180 0.692150 -0.103613
v 0.369180 0.876150 -0.103613
v 0.380983 0.692150 -0.096736
v 0.380983 0.876150 -0.096736
v 0.391897 0.692150 -0.089476
v 0.391897 0.876150 -0.089476
v 0.401742 0.692150 -0.081879
v 0.401742 0.876150 -0.081879
v 0.401742 0.692150 0.026121
v 0.401742 0.876150 0.026121
v 0.170742 0.692150 -0.052879
v 0.170742 0.876150 -0.052879
v 0.170742 0.692150 0.118121
v 0.170742 0.876150 0.118121
v 0.155967 0.692150 0.112703
v 0.155967 0.876150 0.112703
v 0.142622 0.692150 0.106945
v 0.142622 0.876150 0.106945
v 0.130680 0.692150 0.100840
v 0.130680 0.876150 0.100840
v 0.120113 0.692150 0.094380
v 0.120113 0.876150 0.094380
v 0.110893 0.692150 0.087560
v 0.110893 0.876150 0.087560
v 0.102992 0.692150 0.080371
v 0.102992 0.876150 0.080371
v 0.096383 0.692150 0.072807
v 0.096383 0.876150 0.072807
v 0.091038 0.692150 0.064862
v 0.091038 0.876150 0.064862
v 0.086930 0.692150 0.056527
v 0.086930 0.876150 0.056527
v 0.084029 0.692150 0.047797
v 0.084029 0.876150 0.047797
v 0.082309 0.692150 0.038664
v 0.082309 0.876150 0.038664
v 0.081742 0.692150 0.029121
v 0.081742 0.876150 0.029121
v 0.082500 0.692150 0.019028
v 0.082500 0.876150 0.019028
v 0.084724 0.692150 0.009297
v 0.084724 0.876150 0.009297
v 0.088336 0.692150 -0.000004
v 0.088336 0.876150 -0.000004
v 0.093261 0.692150 -0.008805
v 0.093261 0.876150 -0.008805
v 0.099422 0.692150 -0.017036
v 0.099422 0.876150 -0.017036
v 0.106742 0.692150 -0.024629
v 0.106742 0.876150 -0.024629
v 0.115146 0.692150 -0.031513
v 0.115146 0.876150 -0.031513
v 0.124557 0.692150 -0.037620
v 0.124557 0.876150 -0.037620
v 0.134898 0.692150 -0.042879
v 0.134898 0.876150 -0.042879
v 0.146094 0.692150 -0.047222
v 0.146094 0.876150 -0.047222
v 0.158067 0.692150 -0.050578
v 0.158067 0.876150 -0.050578
v 0.266179 0.692150 0.428557
v 0.266179 0.876150 0.428557
v 0.278483 0.692150 0.424362
v 0.278483 0.876150 0.424362
v 0.289648 0.692150 0.419527
v 0.289648 0.876150 0.419527
v 0.299668 0.692150 0.414047
v 0.299668 0.876150 0.414047
v 0.308535 0.692150 0.407914
v 0.308535 0.876150 0.407914
v 0.316242 0.692150 0.401121
v 0.316242 0.876150 0.401121
v 0.322783 0.692150 0.393661
v 0.322783 0.876150 0.393661
v 0.328150 0.692150 0.385528
v 0.328150 0.876150 0.385528
v 0.332336 0.692150 0.376715
v 0.332336 0.876150 0.376715
v 0.335335 0.692150 0.367214
v 0.335335 0.876150 0.367214
v 0.337139 0.692150 0.357018
v 0.337139 0.876150 0.357018
v 0.337742 0.692150 0.346121
v 0.337742 0.876150 0.346121
v 0.337254 0.692150 0.336136
v 0.337254 0.876150 0.336136
v 0.335752 0.692150 0.326658
v 0.335752 0.876150 0.326658
v 0.333180 0.692150 0.317652
v 0.333180 0.876150 0.317652
v 0.329483 0.692150 0.309084
v 0.329483 0.876150 0.309084
v 0.324606 0.692150 0.300918
v 0.324606 0.876150 0.300918
v 0.318492 0.692150 0.293121
v 0.318492 0.876150 0.293121
v 0.311087 0.692150 0.285657
v 0.311087 0.876150 0.285657
v 0.302335 0.692150 0.278491
v 0.302335 0.876150 0.278491
v 0.292180 0.692150 0.271590
v 0.292180 0.876150 0.271590
v 0.280566 0.692150 0.264917
v 0.280566 0.876150 0.264917
v 0.267439 0.692150 0.258439
v 0.267439 0.876150 0.258439
v 0.252742 0.692150 0.252121
v 0.252742 0.876150 0.252121
v 0.252742 0.692150 0.432121
v 0.252742 0.876150 0.432121
vn 0.0000 1.0000 0.0000
vn 0.0000 1.0000 0.0001
vn 0.0000 -1.0000 0.0000
vn -0.6599 0.0000 0.7513
vn -0.6159 0.0000 0.7878
vn -0.5752 0.0000 0.8180
vn -0.5372 0.0000 0.8434
vn -0.5010 0.0000 0.8654
vn -0.4657 0.0000 0.8849
vn -0.4305 0.0000 0.9026
vn -0.3947 0.0000 0.9188
vn -0.3572 0.0000 0.9340
vn -0.3172 0.0000 0.9483
vn -0.2733 0.0000 0.9619
vn 0.6123 0.0000 0.7906
vn 0.8056 0.0000 -0.5924
vn 0.3354 0.0000 -0.9420
vn 0.4112 0.0000 -0.9115
vn 0.4899 0.0000 -0.8718
vn 0.5705 0.0000 -0.8213
vn 0.6515 0.0000 -0.7586
vn 0.7307 0.0000 -0.6826
vn 0.8053 0.0000 -0.5929
vn 0.8718 0.0000 -0.4898
vn 0.9269 0.0000 -0.3753
vn 0.9675 0.0000 -0.2527
vn 0.9920 0.0000 -0.1262
vn 1.0000 0.0000 -0.0006
vn 0.9927 0.0000 0.1202
vn 0.9719 0.0000 0.2354
vn 0.9383 0.0000 0.3459
vn 0.8918 0.0000 0.4523
vn 0.8322 0.0000 0.5545
vn 0.7589 0.0000 0.6512
vn 0.6719 0.0000 0.7406
vn 0.5723 0.0000 0.8200
vn 0.4621 0.0000 0.8868
vn 0.3447 0.0000 0.9387
vn 0.2244 0.0000 0.9745
vn 0.7628 0.0000 0.6466
vn 0.7071 0.0000 0.7071
vn -0.7071 0.0000 0.7071
vn -0.7389 0.0000 0.6738
vn -0.1231 0.0000 0.9924
vn -0.1835 0.0000 0.9830
vn -0.2393 0.0000 0.9709
vn -0.2900 0.0000 0.9570
vn -0.3350 0.0000 0.9422
vn -0.3744 0.0000 0.9272
vn -0.4082 0.0000 0.9129
vn -0.4366 0.0000 0.8996
vn -0.4598 0.0000 0.8880
vn -0.4782 0.0000 0.8782
vn -0.4920 0.0000 0.8706
vn -0.8654 0.0000 0.5011
vn -0.4129 0.0000 -0.9107
vn 0.6507 0.0000 -0.7593
vn 0.6311 0.0000 -0.7757
vn 0.6044 0.0000 -0.7966
vn 0.5706 0.0000 -0.8212
vn 0.5299 0.0000 -0.8480
vn 0.4837 0.0000 -0.8752
vn 0.4343 0.0000 -0.9008
vn 0.3846 0.0000 -0.9231
vn 0.3373 0.0000 -0.9414
vn 0.2946 0.0000 -0.9556
vn 0.2578 0.0000 -0.9662
vn -0.6160 0.0000 -0.7877
vn -0.8035 0.0000 0.5953
vn -0.3275 0.0000 0.9449
vn -0.4010 0.0000 0.9160
vn -0.4773 0.0000 0.8787
vn -0.5554 0.0000 0.8315
vn -0.6342 0.0000 0.7732
vn -0.7118 0.0000 0.7023
vn -0.7862 0.0000 0.6179
vn -0.8545 0.0000 0.5194
vn -0.9136 0.0000 0.4066
vn -0.9597 0.0000 0.2808
vn -0.9896 0.0000 0.1440
vn -1.0000 0.0000 0.0056
vn -0.9920 0.0000 -0.1261
vn -0.9668 0.0000 -0.2553
vn -0.9234 0.0000 -0.3838
vn -0.8624 0.0000 -0.5062
vn -0.7864 0.0000 -0.6177
vn -0.6993 0.0000 -0.7148
vn -0.6054 0.0000 -0.7959
vn -0.5087 0.0000 -0.8609
vn -0.4125 0.0000 -0.9109
vn -0.3191 0.0000 -0.9477
vn -0.2299 0.0000 -0.9732
vn -0.7702 0.0000 -0.6378
vn -0.7071 0.0000 -0.7071
vn 0.7071 0.0000 -0.7071
vn 0.7483 0.0000 -0.6634
vn 0.1471 0.0000 -0.9891
vn 0.1977 0.0000 -0.9802
vn 0.2421 0.0000 -0.9702
vn 0.2826 0.0000 -0.9592
vn 0.3211 0.0000 -0.9470
vn 0.3589 0.0000 -0.9333
vn 0.3973 0.0000 -0.9177
vn 0.4376 0.0000 -0.8991
vn 0.4810 0.0000 -0.8767
vn 0.5289 0.0000 -0.8487
vn 0.5827 0.0000 -0.8126
vn 0.8975 0.0000 -0.4411
vn 0.3984 0.0000 0.9172
vn 0.6408 0.0000 -0.7676
vn 0.5726 0.0000 0.8198
vn -0.3703 0.0000 0.9289
vn -0.4259 0.0000 0.9048
vn -0.4887 0.0000 0.8724
vn -0.5587 0.0000 0.8294
vn -0.6347 0.0000 0.7728
vn -0.7142 0.0000 0.6999
vn -0.7929 0.0000 0.6093
vn -0.8653 0.0000 0.5013
vn -0.9251 0.0000 0.3796
vn -0.9680 0.0000 0.2507
vn -0.9925 0.0000 0.1224
vn -1.0000 0.0000 -0.0078
vn -0.9888 0.0000 -0.1492
vn -0.9561 0.0000 -0.2931
vn -0.9046 0.0000 -0.4262
vn -0.8384 0.0000 -0.5449
vn -0.7617 0.0000 -0.6479
vn -0.6779 0.0000 -0.7351
vn -0.5899 0.0000 -0.8075
vn -0.4995 0.0000 -0.8663
vn -0.4080 0.0000 -0.9130
vn -0.3161 0.0000 -0.9487
vn -0.2245 0.0000 -0.9745
vn -0.2897 0.0000 -0.9571
vn -0.3603 0.0000 -0.9328
vn -0.4390 0.0000 -0.8984
vn -0.5251 0.0000 -0.8510
vn -0.6161 0.0000 -0.7877
vn -0.7080 0.0000 -0.7062
vn -0.7951 0.0000 -0.6064
vn -0.8711 0.0000 -0.4911
vn -0.9306 0.0000 -0.3659
vn -0.9712 0.0000 -0.2381
vn -0.9933 0.0000 -0.1150
vn -1.0000 0.0000 -0.0032
vn -0.9947 0.0000 0.1028
vn -0.9764 0.0000 0.2159
vn -0.9418 0.0000 0.3361
vn -0.8903 0.0000 0.4554
vn -0.8244 0.0000 0.5660
vn -0.7497 0.0000 0.6618
vn -0.6726 0.0000 0.7400
vn -0.5984 0.0000 0.8012
vn -0.5305 0.0000 0.8477
vn -0.4706 0.0000 0.8824
vn -0.4189 0.0000 0.9080
vn 0.5500 0.0000 0.8351
vn 0.6098 0.0000 -0.7926
usemtl None
s off
f 90//1 92//1 91//1
f 90//1 93//1 92//1
f 89//1 93//1 90//1
f 89//1 94//1 93//1
f 89//1 95//1 94//1
f 89//1 96//1 95//1
f 88//1 96//1 89//1
f 88//1 97//1 96//1
f 88//1 98//1 97//1
f 87//1 98//1 88//1
f 87//1 99//1 98//1
f 87//1 100//1 99//1
f 86//1 100//1 87//1
f 86//1 101//1 100//1
f 86//1 102//1 101//1
f 85//1 102//1 86//1
f 85//1 103//1 102//1
f 85//1 104//1 103//1
f 84//1 104//1 85//1
f 84//1 105//1 104//1
f 84//1 12//1 105//1
f 12//1 11//1 105//1
f 11//1 10//1 105//1
f 10//1 9//1 105//1
f 9//1 8//1 105//1
f 8//1 7//1 105//1
f 7//1 6//1 105//1
f 6//1 5//1 105//1
f 5//1 4//1 105//1
f 4//1 3//1 105//1
f 3//1 2//1 105//1
f 2//1 1//1 105//1
f 1//1 106//1 105//1
f 83//1 12//1 84//1
f 82//1 107//1 83//1
f 107//1 12//1 83//1
f 82//1 131//1 107//1
f 108//1 12//1 107//1
f 108//1 13//1 12//1
f 82//1 130//1 131//1
f 82//1 129//1 130//1
f 81//1 129//1 82//1
f 81//1 128//1 129//1
f 81//1 127//1 128//1
f 81//1 126//1 127//1
f 80//1 126//1 81//1
f 80//1 125//1 126//1
f 80//1 124//1 125//1
f 80//1 123//1 124//1
f 79//1 123//1 80//1
f 79//1 122//1 123//1
f 79//1 121//1 122//1
f 78//1 121//1 79//1
f 78//1 120//1 121//1
f 78//1 119//1 120//1
f 78//1 118//1 119//1
f 77//1 118//1 78//1
f 77//1 117//1 118//1
f 77//1 116//1 117//1
f 76//1 116//1 77//1
f 76//1 115//1 116//1
f 76//1 114//1 115//1
f 75//1 114//1 76//1
f 75//1 113//1 114//1
f 75//1 112//1 113//1
f 74//1 112//1 75//1
f 74//1 111//1 112//1
f 74//1 110//1 111//1
f 74//1 109//1 110//1
f 73//1 109//1 74//1
f 73//1 108//1 109//1
f 73//1 13//1 108//1
f 72//1 13//1 73//1
f 71//1 13//1 72//1
f 71//1 14//1 13//1
f 71//1 15//1 14//1
f 70//1 15//1 71//1
f 70//1 16//1 15//1
f 69//1 16//1 70//1
f 69//1 17//1 16//1
f 68//1 17//1 69//1
f 68//1 18//1 17//1
f 67//1 18//1 68//1
f 67//1 19//1 18//1
f 66//1 19//1 67//1
f 65//1 155//1 66//1
f 155//1 19//1 66//1
f 155//1 20//1 19//1
f 155//1 21//1 20//1
f 65//1 156//1 155//1
f 154//1 21//1 155//1
f 154//1 22//1 21//1
f 153//1 22//1 154//1
f 152//1 22//1 153//1
f 151//1 22//1 152//1
f 151//1 23//1 22//1
f 150//1 23//1 151//1
f 149//1 23//1 150//1
f 148//1 23//1 149//1
f 148//1 24//1 23//1
f 147//1 24//1 148//1
f 146//1 24//1 147//1
f 146//1 25//1 24//1
f 145//1 25//1 146//1
f 144//1 25//1 145//1
f 52//1 54//1 53//1
f 143//1 25//1 144//1
f 143//1 26//1 25//1
f 52//1 55//1 54//1
f 142//1 26//1 143//1
f 141//1 26//1 142//1
f 141//1 27//1 26//1
f 52//1 56//1 55//1
f 140//1 27//1 141//1
f 52//1 57//1 56//1
f 139//1 27//1 140//1
f 139//1 28//1 27//1
f 52//1 58//1 57//1
f 138//1 28//1 139//1
f 52//1 59//1 58//1
f 137//1 28//1 138//1
f 52//1 60//1 59//1
f 137//1 29//1 28//1
f 136//1 29//1 137//1
f 52//1 61//1 60//1
f 135//1 29//1 136//1
f 52//1 62//1 61//1
f 134//1 29//1 135//1
f 52//1 63//1 62//1
f 134//1 30//1 29//1
f 133//1 30//1 134//1
f 52//1 64//1 63//1
f 132//1 30//1 133//1
f 52//1 65//1 64//1
f 156//1 30//1 132//1
f 65//2 30//2 156//2
f 52//1 30//1 65//1
f 52//1 31//1 30//1
f 51//1 31//1 52//1
f 51//1 32//1 31//1
f 50//1 32//1 51//1
f 49//1 32//1 50//1
f 49//1 33//1 32//1
f 48//1 33//1 49//1
f 47//1 33//1 48//1
f 47//1 34//1 33//1
f 46//1 34//1 47//1
f 46//1 35//1 34//1
f 45//1 35//1 46//1
f 44//1 35//1 45//1
f 44//1 36//1 35//1
f 43//1 36//1 44//1
f 42//1 36//1 43//1
f 42//1 37//1 36//1
f 41//1 37//1 42//1
f 40//1 37//1 41//1
f 39//1 37//1 40//1
f 39//1 38//1 37//1
f 248//3 246//3 247//3
f 249//3 246//3 248//3
f 249//3 245//3 246//3
f 250//3 245//3 249//3
f 251//3 245//3 250//3
f 252//3 245//3 251//3
f 252//3 244//3 245//3
f 253//3 244//3 252//3
f 254//3 244//3 253//3
f 254//3 243//3 244//3
f 255//3 243//3 254//3
f 256//3 243//3 255//3
f 256//3 242//3 243//3
f 257//3 242//3 256//3
f 258//3 242//3 257//3
f 258//3 241//3 242//3
f 259//3 241//3 258//3
f 260//3 241//3 259//3
f 260//3 240//3 241//3
f 261//3 240//3 260//3
f 168//3 240//3 261//3
f 167//3 168//3 261//3
f 166//3 167//3 261//3
f 165//3 166//3 261//3
f 164//3 165//3 261//3
f 163//3 164//3 261//3
f 162//3 163//3 261//3
f 161//3 162//3 261//3
f 160//3 161//3 261//3
f 159//3 160//3 261//3
f 158//3 159//3 261//3
f 157//3 158//3 261//3
f 262//3 157//3 261//3
f 168//3 239//3 240//3
f 263//3 238//3 239//3
f 168//3 263//3 239//3
f 287//3 238//3 263//3
f 168//3 264//3 263//3
f 169//3 264//3 168//3
f 286//3 238//3 287//3
f 285//3 238//3 286//3
f 285//3 237//3 238//3
f 284//3 237//3 285//3
f 283//3 237//3 284//3
f 282//3 237//3 283//3
f 282//3 236//3 237//3
f 281//3 236//3 282//3
f 280//3 236//3 281//3
f 279//3 236//3 280//3
f 279//3 235//3 236//3
f 278//3 235//3 279//3
f 277//3 235//3 278//3
f 277//3 234//3 235//3
f 276//3 234//3 277//3
f 275//3 234//3 276//3
f 274//3 234//3 275//3
f 274//3 233//3 234//3
f 273//3 233//3 274//3
f 272//3 233//3 273//3
f 272//3 232//3 233//3
f 271//3 232//3 272//3
f 270//3 232//3 271//3
f 270//3 231//3 232//3
f 269//3 231//3 270//3
f 268//3 231//3 269//3
f 268//3 230//3 231//3
f 267//3 230//3 268//3
f 266//3 230//3 267//3
f 265//3 230//3 266//3
f 265//3 229//3 230//3
f 264//3 229//3 265//3
f 169//3 229//3 264//3
f 169//3 228//3 229//3
f 169//3 227//3 228//3
f 170//3 227//3 169//3
f 171//3 227//3 170//3
f 171//3 226//3 227//3
f 172//3 226//3 171//3
f 172//3 225//3 226//3
f 173//3 225//3 172//3
f 173//3 224//3 225//3
f 174//3 224//3 173//3
f 174//3 223//3 224//3
f 175//3 223//3 174//3
f 175//3 222//3 223//3
f 311//3 221//3 222//3
f 175//3 311//3 222//3
f 176//3 311//3 175//3
f 177//3 311//3 176//3
f 312//3 221//3 311//3
f 177//3 310//3 311//3
f 178//3 310//3 177//3
f 178//3 309//3 310//3
f 178//3 308//3 309//3
f 178//3 307//3 308//3
f 179//3 307//3 178//3
f 179//3 306//3 307//3
f 179//3 305//3 306//3
f 179//3 304//3 305//3
f 180//3 304//3 179//3
f 180//3 303//3 304//3
f 180//3 302//3 303//3
f 181//3 302//3 180//3
f 181//3 301//3 302//3
f 181//3 300//3 301//3
f 210//3 208//3 209//3
f 181//3 299//3 300//3
f 182//3 299//3 181//3
f 211//3 208//3 210//3
f 182//3 298//3 299//3
f 182//3 297//3 298//3
f 183//3 297//3 182//3
f 212//3 208//3 211//3
f 183//3 296//3 297//3
f 213//3 208//3 212//3
f 183//3 295//3 296//3
f 184//3 295//3 183//3
f 214//3 208//3 213//3
f 184//3 294//3 295//3
f 215//3 208//3 214//3
f 184//3 293//3 294//3
f 216//3 208//3 215//3
f 185//3 293//3 184//3
f 185//3 292//3 293//3
f 217//3 208//3 216//3
f 185//3 291//3 292//3
f 218//3 208//3 217//3
f 185//3 290//3 291//3
f 219//3 208//3 218//3
f 186//3 290//3 185//3
f 186//3 289//3 290//3
f 220//3 208//3 219//3
f 186//3 288//3 289//3
f 221//3 208//3 220//3
f 186//3 312//3 288//3
f 186//3 221//3 312//3
f 186//3 208//3 221//3
f 187//3 208//3 186//3
f 187//3 207//3 208//3
f 188//3 207//3 187//3
f 188//3 206//3 207//3
f 188//3 205//3 206//3
f 189//3 205//3 188//3
f 189//3 204//3 205//3
f 189//3 203//3 204//3
f 190//3 203//3 189//3
f 190//3 202//3 203//3
f 191//3 202//3 190//3
f 191//3 201//3 202//3
f 191//3 200//3 201//3
f 192//3 200//3 191//3
f 192//3 199//3 200//3
f 192//3 198//3 199//3
f 193//3 198//3 192//3
f 193//3 197//3 198//3
f 193//3 196//3 197//3
f 193//3 195//3 196//3
f 194//3 195//3 193//3
s 1
f 314//4 316//5 315//5 313//4
f 316//5 318//6 317//6 315//5
f 318//6 320//7 319//7 317//6
f 320//7 322//8 321//8 319//7
f 322//8 324//9 323//9 321//8
f 324//9 326//10 325//10 323//9
f 326//10 328//11 327//11 325//10
f 328//11 330//12 329//12 327//11
f 330//12 332//13 331//13 329//12
f 332//13 334//14 333//14 331//13
f 334//14 336//15 335//15 333//14
f 336//15 338//16 337//16 335//15
f 338//16 340//17 339//17 337//16
f 340//17 342//18 341//18 339//17
f 342//18 344//19 343//19 341//18
f 344//19 346//20 345//20 343//19
f 346//20 348//21 347//21 345//20
f 348//21 350//22 349//22 347//21
f 350//22 352//23 351//23 349//22
f 352//23 354//24 353//24 351//23
f 354//24 356//25 355//25 353//24
f 356//25 358//26 357//26 355//25
f 358//26 360//27 359//27 357//26
f 360//27 362//28 361//28 359//27
f 362//28 364//29 363//29 361//28
f 364//29 366//30 365//30 363//29
f 366//30 368//31 367//31 365//30
f 368//31 370//32 369//32 367//31
f 370//32 372//33 371//33 369//32
f 372//33 374//34 373//34 371//33
f 374//34 376//35 375//35 373//34
f 376//35 378//36 377//36 375//35
f 378//36 380//37 379//37 377//36
f 380//37 382//38 381//38 379//37
f 382//38 384//39 383//39 381//38
f 384//39 386//40 385//40 383//39
f 386//40 388//41 387//41 385//40
f 388//41 390//42 389//42 387//41
f 390//42 392//43 391//43 389//42
f 392//43 394//44 393//44 391//43
f 394//44 396//45 395//45 393//44
f 396//45 398//46 397//46 395//45
f 398//46 400//47 399//47 397//46
f 400//47 402//48 401//48 399//47
f 402//48 404//49 403//49 401//48
f 404//49 406//50 405//50 403//49
f 406//50 408//51 407//51 405//50
f 408//51 410//52 409//52 407//51
f 410//52 412//53 411//53 409//52
f 412//53 414//54 413//54 411//53
f 414//54 416//55 415//55 413//54
f 416//55 418//56 417//56 415//55
f 418//56 420//57 419//57 417//56
f 420//57 422//58 421//58 419//57
f 422//58 424//59 423//59 421//58
f 424//59 426//60 425//60 423//59
f 426//60 428//61 427//61 425//60
f 428//61 430//62 429//62 427//61
f 430//62 432//63 431//63 429//62
f 432//63 434//64 433//64 431//63
f 434//64 436//65 435//65 433//64
f 436//65 438//66 437//66 435//65
f 438//66 440//67 439//67 437//66
f 440//67 442//68 441//68 439//67
f 442//68 444//69 443//69 441//68
f 444//69 446//70 445//70 443//69
f 446//70 448//71 447//71 445//70
f 448//71 450//72 449//72 447//71
f 450//72 452//73 451//73 449//72
f 452//73 454//74 453//74 451//73
f 454//74 456//75 455//75 453//74
f 456//75 458//76 457//76 455//75
f 458//76 460//77 459//77 457//76
f 460//77 462//78 461//78 459//77
f 462//78 464//79 463//79 461//78
f 464//79 466//80 465//80 463//79
f 466//80 468//81 467//81 465//80
f 468//81 470//82 469//82 467//81
f 470//82 472//83 471//83 469//82
f 472//83 474//84 473//84 471//83
f 474//84 476//85 475//85 473//84
f 476//85 478//86 477//86 475//85
f 478//86 480//87 479//87 477//86
f 480//87 482//88 481//88 479//87
f 482//88 484//89 483//89 481//88
f 484//89 486//90 485//90 483//89
f 486//90 488//91 487//91 485//90
f 488//91 490//92 489//92 487//91
f 490//92 492//93 491//93 489//92
f 492//93 494//94 493//94 491//93
f 494//94 496//95 495//95 493//94
f 496//95 498//96 497//96 495//95
f 498//96 500//97 499//97 497//96
f 500//97 502//98 501//98 499//97
f 502//98 504//99 503//99 501//98
f 504//99 506//100 505//100 503//99
f 506//100 508//101 507//101 505//100
f 508//101 510//102 509//102 507//101
f 510//102 512//103 511//103 509//102
f 512//103 514//104 513//104 511//103
f 514//104 516//105 515//105 513//104
f 516//105 518//106 517//106 515//105
f 518//106 520//107 519//107 517//106
f 520//107 522//108 521//108 519//107
f 522//108 524//109 523//109 521//108
f 524//109 314//4 313//4 523//109
f 526//110 528//111 527//111 525//110
f 528//111 530//112 529//112 527//111
f 530//112 532//113 531//113 529//112
f 532//113 534//114 533//114 531//113
f 534//114 536//115 535//115 533//114
f 536//115 538//116 537//116 535//115
f 538//116 540//117 539//117 537//116
f 540//117 542//118 541//118 539//117
f 542//118 544//119 543//119 541//118
f 544//119 546//120 545//120 543//119
f 546//120 548//121 547//121 545//120
f 548//121 550//122 549//122 547//121
f 550//122 552//123 551//123 549//122
f 552//123 554//124 553//124 551//123
f 554//124 556//125 555//125 553//124
f 556//125 558//126 557//126 555//125
f 558//126 560//127 559//127 557//126
f 560//127 562//128 561//128 559//127
f 562//128 564//129 563//129 561//128
f 564//129 566//130 565//130 563//129
f 566//130 568//131 567//131 565//130
f 568//131 570//132 569//132 567//131
f 570//132 572//133 571//133 569//132
f 572//133 574//134 573//134 571//133
f 574//134 526//110 525//110 573//134
f 576//135 578//136 577//136 575//135
f 578//136 580//137 579//137 577//136
f 580//137 582//138 581//138 579//137
f 582//138 584//139 583//139 581//138
f 584//139 586//140 585//140 583//139
f 586//140 588//141 587//141 585//140
f 588//141 590//142 589//142 587//141
f 590//142 592//143 591//143 589//142
f 592//143 594//144 593//144 591//143
f 594//144 596//145 595//145 593//144
f 596//145 598//146 597//146 595//145
f 598//146 600//147 599//147 597//146
f 600//147 602//148 601//148 599//147
f 602//148 604//149 603//149 601//148
f 604//149 606//150 605//150 603//149
f 606//150 608//151 607//151 605//150
f 608//151 610//152 609//152 607//151
f 610//152 612//153 611//153 609//152
f 612//153 614//154 613//154 611//153
f 614//154 616//155 615//155 613//154
f 616//155 618//156 617//156 615//155
f 618//156 620//157 619//157 617//156
f 620//157 622//158 621//158 619//157
f 622//158 624//159 623//159 621//158
f 624//159 576//135 575//135 623//159
